ninet                     domen                     2020-05-03  1000.00
zakup prostorija          zakup prostorija          2020-05-04 15000.00
Ninet                     domen                     2020-05-03  1120.00 
--                        isplata                   2020-06-02  4020.00 