1 Spremo Vuk PET 2004 5050.0
2 Spremo Jan KEY 2008 4050.0
3 Spremo Boris HF1 1974 3050.0
4 Petrovic Petar PET 2005 4050.0
5 Jockovic Joca PET 2005 4050.0
6 Patak Paja KEY 2007 4050.0
7 Maus Miki KB1 2011 2000.0
8 Spremo Zeljka PRO 1974 3250.0
9 Zlatic Zlatko KB2 2010 3250.00